142 Science05 :  1  of  10 time taken:  6844 for halo:  /vol/aibn1058/data1/sdeshmukh/RT_files/bigruns/inputfiles/01082016/0265/
143 Science05 :  2  of  10 time taken:  269 for halo:  /vol/aibn1058/data1/sdeshmukh/RT_files/bigruns/inputfiles/01082016/0268/
152 Science03 :  1  of  10 time taken:  7131 for halo:  /vol/aibn1058/data1/sdeshmukh/RT_files/bigruns/inputfiles/01082016/0451/
153 Science03 :  2  of  10 time taken:  0 for halo:  /vol/aibn1058/data1/sdeshmukh/RT_files/bigruns/inputfiles/01082016/0479/
144 Science05 :  3  of  10 time taken:  37 for halo:  /vol/aibn1058/data1/sdeshmukh/RT_files/bigruns/inputfiles/01082016/0280/
145 Science05 :  4  of  10 time taken:  2 for halo:  /vol/aibn1058/data1/sdeshmukh/RT_files/bigruns/inputfiles/01082016/0308/
0 Science05 :  1  of  1 time taken:  13269 for halo:  /vol/aibn1058/data1/sdeshmukh/RT_files/bigruns/inputfiles/01082016/0000/
0 Science05 :  1  of  1 time taken:  17953 for halo:  /vol/aibn1058/data1/sdeshmukh/RT_files/bigruns/inputfiles/01082016/0000/
0 Science05 :  1  of  1 time taken:  6420 for halo:  /vol/aibn1058/data1/sdeshmukh/RT_files/bigruns/inputfiles/01082016/0000/
0 Science05 :  1  of  1 time taken:  2 for halo:  /vol/aibn1058/data1/sdeshmukh/RT_files/bigruns/inputfiles/01082016/0000/
0 Science05 :  1  of  1 time taken:  5748 for halo:  /vol/aibn1058/data1/sdeshmukh/RT_files/bigruns/inputfiles/01082016/0000/
0 Science05 :  1  of  1 time taken:  1 for halo:  /vol/aibn1058/data1/sdeshmukh/RT_files/bigruns/inputfiles/01082016/0000/
0 Science05 :  1  of  1 time taken:  5192 for halo:  /vol/aibn1058/data1/sdeshmukh/RT_files/bigruns/inputfiles/01082016/0000/
0 Science05 :  1  of  1 time taken:  3937 for halo:  /vol/aibn1058/data1/sdeshmukh/RT_files/bigruns/inputfiles/01082016/0000/
0 Science05 :  1  of  1 time taken:  10891 for halo:  /vol/aibn1058/data1/sdeshmukh/RT_files/bigruns/inputfiles/01082016/0000/
